Zora Zorkić
…
What do the clusters look like? Here I calculate summary statistics for the numeric variables by cluster. Cluster 6 is high average Entrpy and High average TOT frequency of mutations, cluster 3 also has high average entropy and average TOT frequency values. Cluster 10 has the almost three times the MEDIAN TOT frequency of cluster 6. All things considered,

clust_dat%>%mutate(cluster=pam10$clustering)%>%group_by(cluster)%>%
  rename_all(function(x)str_replace(x,"_",""))%>%
  summarize_if(is.numeric,.funs = list("mean"=mean,"median"=median,"sd"=sd),na.rm=T)%>%
  pivot_longer(contains("_"))%>%
  separate(name,sep="_",into=c("variable","stat"))%>%
  pivot_wider(names_from = "variable",values_from="value")%>%arrange(stat)

## # A tibble: 30 × 5
##    cluster stat  Position Entropy TOTfrequency
##      <int> <chr>    <dbl>   <dbl>        <dbl>
##  1       1 mean      168. 0.00625         24.2
##  2       2 mean      435. 0.00217         10  
##  3       3 mean      475. 0.0277         231. 
##  4       4 mean      556. 0.0032          12.6
##  5       5 mean      652. 0.00592         23.6
##  6       6 mean      614  0.498        19516. 
##  7       7 mean      829. 0.006           27.8
##  8       8 mean      934. 0.0129          84  
##  9       9 mean     1085. 0.00536         23.4
## 10      10 mean     1188. 0.00733         30  
## # … with 20 more rows
…
